{
  "template": {
    "url": "https://gitlab.com/frkl/frkl.python-project.git",
    "commit": "1a179d5f9efd95fa09a7f5585a6584904e17a2e4"
  },
  "project": {
    "full_name": "Markus Binsteiner",
    "email": "markus@frkl.io",
    "project_name": "{{ cookiecutter.project_name }}",
    {% if cookiecutter.exe_name %}"exe_name": "{{ cookiecutter.exe_name }}",
    {% endif %}"project_slug": "{{ cookiecutter.project_slug }}",
    "project_main_module": "{{ cookiecutter.project_main_module }}",
    "project_short_description": "{{ cookiecutter.project_slug }}"
  }
}
